{
  "server": "127.0.0.1:4562",
  "server_type": "ws",
  "workspaces": [
    {
      "name": "Example 1: Memory limit",
      "view": {
        "type": "Balloon",
        "weight": 1,
        "id": "c63576f221c6a70ce9c6204c51fbf4ffa8b43447",
        "version": 140,
        "child": {
          "type": "VStack",
          "weight": 1,
          "id": "42e9e4ebc7dff634cc1d88888392f0003d2132d6",
          "version": 140,
          "children": [
            {
              "type": "HStack",
              "weight": 1,
              "id": "11715581073b74293dac60e27ad71096db188d12",
              "version": 97,
              "children": [
                {
                  "type": "VStack",
                  "weight": 1,
                  "id": "76acdf428d0ed85beba9dd69d1bc08b252705dd6",
                  "version": 13,
                  "children": [
                    {
                      "type": "Grid",
                      "weight": 1,
                      "id": "133b6dcb14926bc41d252d6655e54db87d02dc40",
                      "version": 4,
                      "title": "Rules",
                      "query": "service =~ \"cyborg:rules:mutiny_%\"",
                      "max": "",
                      "rows": "service",
                      "cols": "host",
                      "row_sort": "lexical",
                      "col_sort": "lexical"
                    },
                    {
                      "type": "Log",
                      "weight": 1,
                      "id": "08b7d63726286270885bf8d19b57d7e09874878a",
                      "version": 5,
                      "title": "",
                      "query": "service =~ \"cyborg:rules:mutiny_%\"",
                      "lines": "3"
                    }
                  ]
                },
                {
                  "type": "VStack",
                  "weight": 1,
                  "id": "2adc353f4f3509b34fc26ecb4b0ecd8ee3225b9a",
                  "version": 14,
                  "children": [
                    {
                      "type": "Grid",
                      "weight": 1,
                      "id": "5662ecc8a68f407cd11fca1cda388ca2612ac691",
                      "version": 9,
                      "title": "Memory usage (bytes)",
                      "query": "service =~ \"process:mutiny_%:mem:rss:absolute\"",
                      "max": "500000000",
                      "rows": "service",
                      "cols": "host",
                      "row_sort": "lexical",
                      "col_sort": "lexical"
                    },
                    {
                      "type": "Log",
                      "weight": 1,
                      "id": "7b6efd07d8746df763cfbb6fd7ef27038d83681c",
                      "version": 16,
                      "title": "",
                      "query": "service =~ \"process:mutiny_%:mem:rss:absolute\"",
                      "lines": "3"
                    }
                  ]
                },
                {
                  "type": "VStack",
                  "weight": 1,
                  "id": "dfcf9e1f999c1184d82fc49ce6ddbbceba28beeb",
                  "version": 7,
                  "children": [
                    {
                      "type": "Grid",
                      "weight": 1,
                      "id": "a4e190e9c3b440b7d49d2e9a3c001b42713254e5",
                      "version": 32,
                      "title": "Uptime (seconds)",
                      "query": "service =~ \"process:mutiny_%:uptime\"",
                      "max": "30",
                      "rows": "service",
                      "cols": "host",
                      "row_sort": "lexical",
                      "col_sort": "lexical"
                    },
                    {
                      "type": "Log",
                      "weight": 1,
                      "id": "33b08967675b01503132a4bd73b548020ba4c4af",
                      "version": 3,
                      "title": "",
                      "query": "service =~ \"process:mutiny_%:uptime\"",
                      "lines": "3"
                    }
                  ]
                }
              ]
            },
            {
              "type": "HStack",
              "weight": 1,
              "id": "539dd0bc428abe23f536412749c5c1ab19c6d347",
              "version": 18,
              "children": [
                {
                  "type": "View",
                  "weight": 1,
                  "id": "2c885b781389565fd5681fed545328899f80f101",
                  "version": 10
                },
                {
                  "type": "Flot",
                  "weight": 1,
                  "id": "a7ef218966c7544d098444a09aebc72c4badc4ea",
                  "version": 53,
                  "title": "",
                  "query": "service =~ \"process:mutiny_%:mem:rss:absolute\"",
                  "min": "0",
                  "max": "500000000",
                  "timeRange": 60,
                  "graphType": "line",
                  "stackMode": "false"
                },
                {
                  "type": "Flot",
                  "weight": 1,
                  "id": "f8500748a441753d2b11a3ba082496c15b18231f",
                  "version": 2,
                  "title": "",
                  "query": "service =~ \"process:mutiny_%:uptime\"",
                  "min": "0",
                  "max": "30",
                  "timeRange": 60,
                  "graphType": "line",
                  "stackMode": "false"
                }
              ]
            }
          ]
        }
      },
      "id": "c3a9cf8ca71c71f00087d8fa69a7d3fd0b061851"
    },
    {
      "name": "Example 2: HTTP service",
      "view": {
        "type": "Balloon",
        "weight": 1,
        "id": "cf3fa7a2acae04dd7bf86d0bdaf137200a3689a0",
        "version": 37,
        "child": {
          "type": "VStack",
          "weight": 1,
          "id": "4627bf41e30c63ca9bbc0482a80cca72f89a0873",
          "version": 37,
          "children": [
            {
              "type": "HStack",
              "weight": 1,
              "id": "5b387599bf3f60df88337e2105a1600ec9f1d868",
              "version": 24,
              "children": [
                {
                  "type": "VStack",
                  "weight": 1,
                  "id": "f132c192ddaa4ef4ec3bc3c98453238c3f1cfa1a",
                  "version": 9,
                  "children": [
                    {
                      "type": "Flot",
                      "weight": 1,
                      "id": "a8f727c1158af17ef8713594875ce21923c2ba8e",
                      "version": 13,
                      "title": "App Uptime (seconds)",
                      "query": "service =~ \"process:app:uptime\"",
                      "min": "0",
                      "max": "60",
                      "timeRange": 60,
                      "graphType": "line",
                      "stackMode": "false"
                    }
                  ]
                },
                {
                  "type": "Log",
                  "weight": 1,
                  "id": "ed9f5cc665a137b57f82dfd503d643186bcf8064",
                  "version": 15,
                  "title": "Rules",
                  "query": "service =~ \"cyborg:rules:app_%\"",
                  "lines": "30"
                }
              ]
            }
          ]
        }
      },
      "id": "e282c3bd0ab309c9aa86a1346073f19196dc1f07"
    },
    {
      "name": "Example 3: CPU limit",
      "view": {
        "type": "Balloon",
        "weight": 1,
        "id": "be77a3f32eae7627f355c508061290001eaf8a46",
        "version": 12,
        "child": {
          "type": "VStack",
          "weight": 1,
          "id": "cc46e2f51446d922276449ec961a52dd156a4128",
          "version": 12,
          "children": [
            {
              "type": "HStack",
              "weight": 1,
              "id": "170f004fd438a166ce70b38a4c775761574d9833",
              "version": 7,
              "children": [
                {
                  "type": "VStack",
                  "weight": 1,
                  "id": "b70f537ecebcd7895291cb7bd8febf7e45b1b151",
                  "version": 5,
                  "children": [
                    {
                      "type": "Grid",
                      "weight": 1,
                      "id": "c2f2060354c3973e56f1e05a88492c4e8fe5e04c",
                      "version": 9,
                      "title": "",
                      "query": "service =~ \"process:%:cpu:percent\"",
                      "max": "100",
                      "rows": "service",
                      "cols": "host",
                      "row_sort": "lexical",
                      "col_sort": "lexical"
                    },
                    {
                      "type": "Flot",
                      "weight": 1,
                      "id": "e8aa11e2285789818a14e6723cc1b76047d07f63",
                      "version": 2,
                      "title": "",
                      "query": "service =~ \"process:%:cpu:percent\"",
                      "min": "0",
                      "max": "100",
                      "timeRange": 300,
                      "graphType": "line",
                      "stackMode": "false"
                    }
                  ]
                }
              ]
            }
          ]
        }
      },
      "id": "62c2e94b9ece70d4072a44617b9fd7f14f343521"
    },
    {
      "name": "Supermann",
      "view": {
        "type": "Balloon",
        "weight": 1,
        "id": "293f82f0443f87fc2f08ee6a7e50a917e00f9433",
        "version": 4,
        "child": {
          "type": "VStack",
          "weight": 1,
          "id": "0d1d36ca491d5f4eb9f24f0be89f31e5f886df41",
          "version": 4,
          "children": [
            {
              "type": "Log",
              "weight": 1,
              "id": "6d8c27888bfa27b489be6255a496fea26efe7a7e",
              "version": 4,
              "title": "Uptime log",
              "query": "service =~ \"process:app:uptime\"",
              "lines": "1000"
            }
          ]
        }
      },
      "id": "e5d4d52a147da295692edfb1858987fb008c5ba4"
    }
  ]
}